\relax 
\@writefile{toc}{\contentsline {chapter}{Abstract}{iii}}
\@writefile{toc}{\contentsline {chapter}{Acknowledgements}{iv}}
\@writefile{toc}{\contentsline {chapter}{List of Tables}{vii}}
\@writefile{toc}{\contentsline {chapter}{List of Figures}{viii}}
\citation{link_DARPA}
\citation{link_DARPA_05}
\citation{link_DARPA_07}
\@writefile{toc}{\contentsline {chapter}{\numberline {1}Introduction}{1}}
\@writefile{lof}{\addvspace {10\p@ }}
\@writefile{lot}{\addvspace {10\p@ }}
\citation{shelton2011-genetic-based-LBP-feature-extraction}
\citation{shelton2011-comparison-of-Genetic-based-Feature-Extraction}
\citation{sheltonmitigating-iris-based-replay-attacks}
\@writefile{lof}{\contentsline {figure}{\numberline {1.1}{\ignorespaces Robot Platform over artificial track made of felt}}{2}}
\providecommand*\caption@xref[2]{\@setref\relax\@undefined{#1}}
\newlabel{fig:robot_platform}{{1.1}{2}}
\citation{vision-for-mobile-robot-navigation}
\citation{Tan-Color-model-based-real-time-learning-for-road-following}
\citation{lane-detection-using-voting-processor}
\citation{segmentation}
\citation{edge}
\citation{Tan-Color-model-based-real-time-learning-for-road-following}
\citation{Tan-Color-model-based-real-time-learning-for-road-following}
\citation{Tan-Color-model-based-real-time-learning-for-road-following}
\@writefile{toc}{\contentsline {chapter}{\numberline {2}Background}{5}}
\@writefile{lof}{\addvspace {10\p@ }}
\@writefile{lot}{\addvspace {10\p@ }}
\@writefile{toc}{\contentsline {section}{\numberline {2.1}Image Processing}{5}}
\citation{book_machine_learning_marsland2011machine}
\citation{book_machine_learning_anderson1986machine}
\@writefile{toc}{\contentsline {section}{\numberline {2.2}Machine Learning}{6}}
\citation{robotic-clicker-training}
\@writefile{toc}{\contentsline {subsection}{\numberline {2.2.1}Unsupervised Learning}{7}}
\@writefile{toc}{\contentsline {subsection}{\numberline {2.2.2}Reinforcement Learning}{7}}
\citation{Argall-survey-of-robot-learning-from-demonstration}
\citation{schaal2003computational}
\citation{Argall-survey-of-robot-learning-from-demonstration}
\citation{sullivan2013real}
\citation{silver2010applied}
\citation{sullivan2013real}
\citation{silver2010applied}
\@writefile{toc}{\contentsline {subsection}{\numberline {2.2.3}Supervised Learning}{8}}
\@writefile{toc}{\contentsline {subsubsection}{\numberline {2.2.3.1}Learning From Demonstration}{8}}
\citation{pomerleau1991efficient}
\citation{Argall-survey-of-robot-learning-from-demonstration}
\citation{Argall-survey-of-robot-learning-from-demonstration}
\@writefile{toc}{\contentsline {section}{\numberline {2.3}COTS Bots}{10}}
\newlabel{sec:COTS Bots}{{2.3}{10}}
\citation{book_introductiontoevolutionaraycomputing_eiben2003}
\citation{book_Handbook_of_evolutionary_computation_back1997handbook}
\citation{book_knapsack_martelloknapsack}
\@writefile{toc}{\contentsline {section}{\numberline {2.4}Evolutionary Computation}{11}}
\newlabel{sec:Evolutionary-Computation}{{2.4}{11}}
\citation{shelton2011-comparison-of-Genetic-based-Feature-Extraction}
\citation{shelton2011-genetic-based-LBP-feature-extraction}
\citation{shelton2011-comparison-of-Genetic-based-Feature-Extraction}
\citation{shelton2011-comparison-of-Genetic-based-Feature-Extraction}
\citation{sheltonmitigating-iris-based-replay-attacks}
\@writefile{toc}{\contentsline {section}{\numberline {2.5}GEFE and Evolving regions}{13}}
\newlabel{sec:GEFE and Evolving regions}{{2.5}{13}}
\@writefile{lof}{\contentsline {figure}{\numberline {2.1}{\ignorespaces GEFE with best 3 and 10 regions}}{14}}
\newlabel{fig:evolved_regions}{{2.1}{14}}
\citation{shelton2011-comparison-of-Genetic-based-Feature-Extraction}
\citation{shelton2011-comparison-of-Genetic-based-Feature-Extraction}
\@writefile{toc}{\contentsline {section}{\numberline {2.6}Local Binary Pattern}{15}}
\newlabel{sec:lbp}{{2.6}{15}}
\@writefile{lof}{\contentsline {figure}{\numberline {2.2}{\ignorespaces Local Binary Pattern\relax }}{16}}
\newlabel{fig:lbp}{{2.2}{16}}
\@writefile{toc}{\contentsline {section}{\numberline {2.7}Edge and Contour Detection}{17}}
\@writefile{toc}{\contentsline {chapter}{\numberline {3}Goal}{18}}
\@writefile{lof}{\addvspace {10\p@ }}
\@writefile{lot}{\addvspace {10\p@ }}
\newlabel{sec:goal}{{3}{18}}
\@writefile{lot}{\contentsline {table}{\numberline {3.1}{\ignorespaces Goals of the experiment\relax }}{19}}
\newlabel{tab:experiment_goals}{{3.1}{19}}
\@writefile{toc}{\contentsline {chapter}{\numberline {4}Experiment}{20}}
\@writefile{lof}{\addvspace {10\p@ }}
\@writefile{lot}{\addvspace {10\p@ }}
\@writefile{toc}{\contentsline {section}{\numberline {4.1}Experimental Setup}{20}}
\newlabel{sec:experimental setup}{{4.1}{20}}
\@writefile{lof}{\contentsline {figure}{\numberline {4.1}{\ignorespaces Training and Testing tracks}}{21}}
\newlabel{fig:tracks}{{4.1}{21}}
\@writefile{lof}{\contentsline {figure}{\numberline {4.2}{\ignorespaces Different steps of the experiment\relax }}{22}}
\newlabel{fig:evolution_steps}{{4.2}{22}}
\@writefile{lof}{\contentsline {figure}{\numberline {4.3}{\ignorespaces Demonstrating the region of image assumed to be safe road surface}}{23}}
\newlabel{fig:safe_road}{{4.3}{23}}
\@writefile{toc}{\contentsline {section}{\numberline {4.2}Static 32 regions}{23}}
\newlabel{sec:static 32 regions}{{4.2}{23}}
\@writefile{toc}{\contentsline {subsection}{\numberline {4.2.1}Vision Training Step}{23}}
\newlabel{subsec:32region train vision}{{4.2.1}{23}}
\@writefile{loa}{\contentsline {algorithm}{\numberline {1}{\ignorespaces  : Computation of road probability for regions in an image\relax }}{24}}
\newlabel{alg:Probability-computation-for-regions}{{1}{24}}
\@writefile{toc}{\contentsline {subsection}{\numberline {4.2.2}Training and Evolution Step}{24}}
\newlabel{subsec:32region evolution}{{4.2.2}{24}}
\@writefile{lof}{\contentsline {figure}{\numberline {4.4}{\ignorespaces Neural Network Structure\relax }}{26}}
\newlabel{fig:neural_network}{{4.4}{26}}
\newlabel{algo:evolution}{{\caption@xref {algo:evolution}{ on input line 513}}{28}}
\@writefile{loa}{\contentsline {algorithm}{\numberline {2}{\ignorespaces  : Genetic Algorithm Fitness Function\relax }}{28}}
\newlabel{gaFitness}{{2}{28}}
\@writefile{lot}{\contentsline {table}{\numberline {4.1}{\ignorespaces Summary of the evolutionary algorithm parameters\relax }}{28}}
\newlabel{tab:ECparameters}{{4.1}{28}}
\@writefile{toc}{\contentsline {subsection}{\numberline {4.2.3}Test}{28}}
\newlabel{subsec:32region test}{{4.2.3}{28}}
\@writefile{lot}{\contentsline {table}{\numberline {4.2}{\ignorespaces Evolving neural network controller weights using inputs from 32 static regions\relax }}{30}}
\newlabel{table:data1}{{4.2}{30}}
\@writefile{toc}{\contentsline {subsection}{\numberline {4.2.4}Result}{30}}
\newlabel{subsec:32-regions-conclusion}{{4.2.4}{30}}
\@writefile{toc}{\contentsline {section}{\numberline {4.3}Evolving regions using GEFE}{32}}
\newlabel{sec:evolving regions using gefe}{{4.3}{32}}
\@writefile{toc}{\contentsline {subsection}{\numberline {4.3.1}Vision Training Step}{32}}
\@writefile{toc}{\contentsline {subsection}{\numberline {4.3.2}Training and Evolution Step}{32}}
\newlabel{subsec:gefe-evolution-setp}{{4.3.2}{32}}
\@writefile{lof}{\contentsline {figure}{\numberline {4.5}{\ignorespaces Neural Network Structure Taking Input From Evolved Region\relax }}{34}}
\newlabel{fig:evolved_regions_neural_network}{{4.5}{34}}
\@writefile{lot}{\contentsline {table}{\numberline {4.3}{\ignorespaces Summary of the evolutionary algorithm parameters\relax }}{35}}
\newlabel{tab:evolving_regions-ECparameters}{{4.3}{35}}
\@writefile{toc}{\contentsline {subsection}{\numberline {4.3.3}Test for number of regions}{36}}
\newlabel{subsec:evolution_test_no_of_regions}{{4.3.3}{36}}
\@writefile{lot}{\contentsline {table}{\numberline {4.4}{\ignorespaces Evolving 2 fixed size regions and weights of neural network controller by running evolution for 200 generations\relax }}{37}}
\newlabel{table:data2}{{4.4}{37}}
\@writefile{lot}{\contentsline {table}{\numberline {4.5}{\ignorespaces Evolving 3 fixed size regions and weights of neural network controller by running evolution for 200 generations\relax }}{38}}
\newlabel{table:data3}{{4.5}{38}}
\@writefile{lot}{\contentsline {table}{\numberline {4.6}{\ignorespaces Evolving 5 fixed size regions and weights of neural network controller by running evolution for 200 generations\relax }}{38}}
\newlabel{table:data4}{{4.6}{38}}
\@writefile{lot}{\contentsline {table}{\numberline {4.7}{\ignorespaces Evolving 10 fixed size regions and weights of neural network controller by running evolution for 200 generations\relax }}{39}}
\newlabel{table:data5}{{4.7}{39}}
\@writefile{lot}{\contentsline {table}{\numberline {4.8}{\ignorespaces Evolving 10 fixed size regions and weights of neural network controller by running evolution for 300 generations\relax }}{39}}
\newlabel{table:data6}{{4.8}{39}}
\@writefile{lof}{\contentsline {figure}{\numberline {4.6}{\ignorespaces GEFE with 3 regions\relax }}{40}}
\newlabel{fig:3_evolved_regions}{{4.6}{40}}
\@writefile{lof}{\contentsline {figure}{\numberline {4.7}{\ignorespaces Evolved regions of all 5 training cases for 3 regions (left) and 5 regions (right).\relax }}{40}}
\newlabel{fig:summary of 3 and 5 regions}{{4.7}{40}}
\@writefile{toc}{\contentsline {subsection}{\numberline {4.3.4}Test for nature of regions}{42}}
\newlabel{subsec:gefe-test-for-nature-of-regions}{{4.3.4}{42}}
\citation{shelton2011-comparison-of-Genetic-based-Feature-Extraction}
\citation{shelton2011-comparison-of-Genetic-based-Feature-Extraction}
\@writefile{lot}{\contentsline {table}{\numberline {4.9}{\ignorespaces Evolving 10 variable size regions and weights of neural network controller by running evolution for 300 generations\relax }}{43}}
\newlabel{table:data7}{{4.9}{43}}
\@writefile{lof}{\contentsline {figure}{\numberline {4.8}{\ignorespaces 10 regions GEFE with fixed size regions (left) and variable size regions (right)\relax }}{44}}
\newlabel{fig:evolved_regions_test_for_nature}{{4.8}{44}}
\@writefile{toc}{\contentsline {subsection}{\numberline {4.3.5}Test for learning by backpropagation}{44}}
\newlabel{subsec:gefe-test-for_learning-by-backprop}{{4.3.5}{44}}
\@writefile{toc}{\contentsline {subsection}{\numberline {4.3.6}Results}{46}}
\newlabel{subsection:gefe-results}{{4.3.6}{46}}
\@writefile{toc}{\contentsline {chapter}{\numberline {5}Summary and Conclusions}{49}}
\@writefile{lof}{\addvspace {10\p@ }}
\@writefile{lot}{\addvspace {10\p@ }}
\@writefile{toc}{\contentsline {chapter}{\numberline {6}Future Work}{51}}
\@writefile{lof}{\addvspace {10\p@ }}
\@writefile{lot}{\addvspace {10\p@ }}
\bibstyle{plain}
\bibdata{mybib}
\bibcite{link_DARPA}{1}
\bibcite{book_machine_learning_anderson1986machine}{2}
\bibcite{Argall-survey-of-robot-learning-from-demonstration}{3}
\bibcite{book_Handbook_of_evolutionary_computation_back1997handbook}{4}
\bibcite{link_DARPA_05}{5}
\bibcite{link_DARPA_07}{6}
\bibcite{vision-for-mobile-robot-navigation}{7}
\bibcite{book_introductiontoevolutionaraycomputing_eiben2003}{8}
\bibcite{edge}{9}
\bibcite{robotic-clicker-training}{10}
\bibcite{segmentation}{11}
\@writefile{toc}{\contentsline {chapter}{References}{52}}
\bibcite{book_machine_learning_marsland2011machine}{12}
\bibcite{book_knapsack_martelloknapsack}{13}
\bibcite{pomerleau1991efficient}{14}
\bibcite{schaal2003computational}{15}
\bibcite{shelton2011-genetic-based-LBP-feature-extraction}{16}
\bibcite{shelton2011-comparison-of-Genetic-based-Feature-Extraction}{17}
\bibcite{sheltonmitigating-iris-based-replay-attacks}{18}
\bibcite{silver2010applied}{19}
\bibcite{sullivan2013real}{20}
\bibcite{lane-detection-using-voting-processor}{21}
\bibcite{Tan-Color-model-based-real-time-learning-for-road-following}{22}
