\relax 
\@writefile{toc}{\contentsline {chapter}{Authorization to Submit Thesis}{ii}}
\@writefile{toc}{\contentsline {chapter}{Abstract}{iii}}
\@writefile{toc}{\contentsline {chapter}{Acknowledgements}{iv}}
\@writefile{toc}{\contentsline {chapter}{Table of Contents}{v}}
\@writefile{toc}{\contentsline {chapter}{List of Tables}{vi}}
\@writefile{toc}{\contentsline {chapter}{List of Figures}{vii}}
\@writefile{toc}{\contentsline {chapter}{\numberline {1}Introduction}{1}}
\@writefile{lof}{\addvspace {10\p@ }}
\@writefile{lot}{\addvspace {10\p@ }}
\@writefile{lof}{\contentsline {figure}{\numberline {1.1}{\ignorespaces Robot Platform over the artificial track of felt}}{2}}
\newlabel{fig:robot_platform}{{1.1}{2}}
\citation{Tan-Color-model-based-real-time-learning-for-road-following}
\@writefile{toc}{\contentsline {chapter}{\numberline {2}Background}{4}}
\@writefile{lof}{\addvspace {10\p@ }}
\@writefile{lot}{\addvspace {10\p@ }}
\@writefile{toc}{\contentsline {section}{\numberline {2.1}Learning From Demonstration}{4}}
\@writefile{toc}{\contentsline {section}{\numberline {2.2}Section Name}{4}}
\@writefile{toc}{\contentsline {section}{\numberline {2.3}Section Name}{4}}
\@writefile{toc}{\contentsline {chapter}{\numberline {3}Summary and Conclusions}{5}}
\@writefile{lof}{\addvspace {10\p@ }}
\@writefile{lot}{\addvspace {10\p@ }}
\bibstyle{plain}
\bibdata{mybib}
\@writefile{toc}{\contentsline {chapter}{Appendix A: Name}{6}}
\@writefile{toc}{\contentsline {chapter}{Appendix B: Name}{6}}
\@writefile{toc}{\contentsline {chapter}{References}{6}}
\bibcite{Tan-Color-model-based-real-time-learning-for-road-following}{1}
