\contentsline {chapter}{Authorization to Submit Thesis}{ii}
\contentsline {chapter}{Abstract}{iii}
\contentsline {chapter}{Acknowledgements}{iv}
\contentsline {chapter}{Table of Contents}{v}
\contentsline {chapter}{List of Tables}{vi}
\contentsline {chapter}{List of Figures}{vii}
\contentsline {chapter}{\numberline {1}Introduction}{1}
\contentsline {chapter}{\numberline {2}Background}{4}
\contentsline {section}{\numberline {2.1}Learning From Demonstration}{4}
\contentsline {section}{\numberline {2.2}Section Name}{4}
\contentsline {section}{\numberline {2.3}Section Name}{4}
\contentsline {chapter}{\numberline {3}Summary and Conclusions}{5}
\contentsline {chapter}{Appendix A: Name}{6}
\contentsline {chapter}{Appendix B: Name}{6}
\contentsline {chapter}{References}{6}
