\relax 
\@writefile{toc}{\contentsline {chapter}{Authorization to Submit Thesis}{ii}}
\@writefile{toc}{\contentsline {chapter}{Abstract}{iii}}
\@writefile{toc}{\contentsline {chapter}{Acknowledgements}{iv}}
\@writefile{toc}{\contentsline {chapter}{Table of Contents}{v}}
\@writefile{toc}{\contentsline {chapter}{List of Tables}{vii}}
\@writefile{toc}{\contentsline {chapter}{List of Figures}{viii}}
\@writefile{toc}{\contentsline {chapter}{\numberline {1}Introduction}{1}}
\@writefile{lof}{\addvspace {10\p@ }}
\@writefile{lot}{\addvspace {10\p@ }}
\newlabel{chap:introduction}{{1}{1}}
\@writefile{lof}{\contentsline {figure}{\numberline {1.1}{\ignorespaces Robot Platform over the artificial track of felt}}{2}}
\newlabel{fig:robot_platform}{{1.1}{2}}
\@writefile{toc}{\contentsline {chapter}{\numberline {2}Background}{4}}
\@writefile{lof}{\addvspace {10\p@ }}
\@writefile{lot}{\addvspace {10\p@ }}
\newlabel{chap:background}{{2}{4}}
\@writefile{toc}{\contentsline {section}{\numberline {2.1}Image Processing}{4}}
\newlabel{sec:back:image_processing}{{2.1}{4}}
\@writefile{toc}{\contentsline {section}{\numberline {2.2}Genetic-based Feature Extraction}{5}}
\newlabel{sec:back:genetic_based_feature_extraction}{{2.2}{5}}
\@writefile{toc}{\contentsline {chapter}{\numberline {3}Experiment}{6}}
\@writefile{lof}{\addvspace {10\p@ }}
\@writefile{lot}{\addvspace {10\p@ }}
\newlabel{chap:experiment}{{3}{6}}
\@writefile{toc}{\contentsline {section}{\numberline {3.1}Edge Detection}{6}}
\newlabel{sec:exp:edge_detection}{{3.1}{6}}
\@writefile{toc}{\contentsline {section}{\numberline {3.2}Texture Detection}{7}}
\newlabel{sec:exp:texture_detection}{{3.2}{7}}
\@writefile{lof}{\contentsline {figure}{\numberline {3.1}{\ignorespaces Local Binary Pattern computation using radius 1 and neighbor size 8.}}{8}}
\newlabel{fig:lbp_calculation}{{3.1}{8}}
\@writefile{toc}{\contentsline {section}{\numberline {3.3}Evolving Of Sub-Regions}{8}}
\newlabel{sec:exp:evolving_sub_region}{{3.3}{8}}
\@writefile{lof}{\contentsline {figure}{\numberline {3.2}{\ignorespaces Testing Track}}{9}}
\newlabel{fig:testing_track}{{3.2}{9}}
\@writefile{lof}{\contentsline {figure}{\numberline {3.3}{\ignorespaces Training Track}}{9}}
\newlabel{fig:training_track}{{3.3}{9}}
\@writefile{toc}{\contentsline {section}{\numberline {3.4}Experimental Setup}{9}}
\newlabel{sec:exp:exp_setup}{{3.4}{9}}
\@writefile{lot}{\contentsline {table}{\numberline {3.1}{\ignorespaces Summary Of Evolutionary Algorithm for Neural Network}}{10}}
\newlabel{tab:nn_evolutionary_algorithm}{{3.1}{10}}
\@writefile{lot}{\contentsline {table}{\numberline {3.2}{\ignorespaces Summary Of Evolutionary Algorithm for evolving sub-regions}}{11}}
\newlabel{tab:sub-region_evolutionary_algorithm}{{3.2}{11}}
\@writefile{toc}{\contentsline {chapter}{\numberline {4}Results}{12}}
\@writefile{lof}{\addvspace {10\p@ }}
\@writefile{lot}{\addvspace {10\p@ }}
\newlabel{chap:results}{{4}{12}}
\@writefile{lot}{\contentsline {table}{\numberline {4.1}{\ignorespaces Number of successful counts the robots made to the checkpoints}}{12}}
\newlabel{tab:results1}{{4.1}{12}}
\@writefile{toc}{\contentsline {chapter}{\numberline {5}Summary and Conclusions}{13}}
\@writefile{lof}{\addvspace {10\p@ }}
\@writefile{lot}{\addvspace {10\p@ }}
\bibdata{References}
\@writefile{toc}{\contentsline {chapter}{Appendix A: Name}{14}}
\@writefile{toc}{\contentsline {chapter}{Appendix B: Name}{14}}
\@writefile{toc}{\contentsline {chapter}{References}{14}}
\bibcite{Each Author's Last Initial}{1}
