Mon Jun 09 16:25:07 PDT 2014    1    0.27402702788694133    NaN    left - 6  right - 6  for- 6   [-2.6287428685897223, 0.0, 2.217107583474337, -0.32515524704303517, -2.6287428685897223, 0.0, 2.217107583474337, -0.32515524704303517, -2.6287428685897223, 0.0, 2.217107583474337, -0.32515524704303517, -2.6287428685897223, 0.0, 2.217107583474337, -0.32515524704303517, -2.6287428685897223, 0.0, 2.217107583474337, -0.32515524704303517, -0.035871827431608966, -0.035871827431608966, -0.035871827431608966, -0.035871827431608966, -0.035871827431608966, -0.5495307012682384, 0.706225299095605, 0.706225299095605, 0.706225299095605, 0.706225299095605, 0.706225299095605, -2.3393653642476147, -1.075625643238199, -1.075625643238199, -1.075625643238199, -1.075625643238199, -1.075625643238199, 0.9719413031291942, 28.0, 10.0, 31.0, 23.0, 12.0, 5.0, 3.0, 3.0, 18.0, 23.0, 15.0, 12.0, ]
Mon Jun 09 16:25:20 PDT 2014    2    0.27402702788694133    NaN    left - 6  right - 6  for- 6   [-2.6287428685897223, 0.0, 2.217107583474337, -0.32515524704303517, -2.6287428685897223, 0.0, 2.217107583474337, -0.32515524704303517, -2.6287428685897223, 0.0, 2.217107583474337, -0.32515524704303517, -2.6287428685897223, 0.0, 2.217107583474337, -0.32515524704303517, -2.6287428685897223, 0.0, 2.217107583474337, -0.32515524704303517, -0.035871827431608966, -0.035871827431608966, -0.035871827431608966, -0.035871827431608966, -0.035871827431608966, -0.5495307012682384, 0.706225299095605, 0.706225299095605, 0.706225299095605, 0.706225299095605, 0.706225299095605, -2.3393653642476147, -1.075625643238199, -1.075625643238199, -1.075625643238199, -1.075625643238199, -1.075625643238199, 0.9719413031291942, 28.0, 10.0, 31.0, 23.0, 12.0, 5.0, 3.0, 3.0, 18.0, 23.0, 15.0, 12.0, ]
Mon Jun 09 16:25:42 PDT 2014    3    0.27402702788694133    NaN    left - 6  right - 6  for- 6   [-2.6287428685897223, 0.0, 2.217107583474337, -0.32515524704303517, -2.6287428685897223, 0.0, 2.217107583474337, -0.32515524704303517, -2.6287428685897223, 0.0, 2.217107583474337, -0.32515524704303517, -2.6287428685897223, 0.0, 2.217107583474337, -0.32515524704303517, -2.6287428685897223, 0.0, 2.217107583474337, -0.32515524704303517, -0.035871827431608966, -0.035871827431608966, -0.035871827431608966, -0.035871827431608966, -0.035871827431608966, -0.5495307012682384, 0.706225299095605, 0.706225299095605, 0.706225299095605, 0.706225299095605, 0.706225299095605, -2.3393653642476147, -1.075625643238199, -1.075625643238199, -1.075625643238199, -1.075625643238199, -1.075625643238199, 0.9719413031291942, 28.0, 10.0, 31.0, 23.0, 12.0, 5.0, 3.0, 3.0, 18.0, 23.0, 15.0, 12.0, ]
Mon Jun 09 16:25:56 PDT 2014    4    0.27402702788694133    NaN    left - 6  right - 6  for- 6   [-2.6287428685897223, 0.0, 2.217107583474337, -0.32515524704303517, -2.6287428685897223, 0.0, 2.217107583474337, -0.32515524704303517, -2.6287428685897223, 0.0, 2.217107583474337, -0.32515524704303517, -2.6287428685897223, 0.0, 2.217107583474337, -0.32515524704303517, -2.6287428685897223, 0.0, 2.217107583474337, -0.32515524704303517, -0.035871827431608966, -0.035871827431608966, -0.035871827431608966, -0.035871827431608966, -0.035871827431608966, -0.5495307012682384, 0.706225299095605, 0.706225299095605, 0.706225299095605, 0.706225299095605, 0.706225299095605, -2.3393653642476147, -1.075625643238199, -1.075625643238199, -1.075625643238199, -1.075625643238199, -1.075625643238199, 0.9719413031291942, 28.0, 10.0, 31.0, 23.0, 12.0, 5.0, 3.0, 3.0, 18.0, 23.0, 15.0, 12.0, ]
Mon Jun 09 16:26:13 PDT 2014    5    0.26996843324081554    NaN    left - 6  right - 6  for- 6   [-4.117098134453118, 0.0, 2.2051702985197252, -0.31228363640927226, -4.117098134453118, 0.0, 2.2051702985197252, -0.31228363640927226, -4.117098134453118, 0.0, 2.2051702985197252, -0.31228363640927226, -4.117098134453118, 0.0, 2.2051702985197252, -0.31228363640927226, -4.117098134453118, 0.0, 2.2051702985197252, -0.31228363640927226, -0.02982035509335286, -0.02982035509335286, -0.02982035509335286, -0.02982035509335286, -0.02982035509335286, -0.5671946278418055, 0.7089051439422243, 0.7089051439422243, 0.7089051439422243, 0.7089051439422243, 0.7089051439422243, -2.3557160794372742, -1.0887609248913166, -1.0887609248913166, -1.0887609248913166, -1.0887609248913166, -1.0887609248913166, 0.994780344247137, 28.0, 10.0, 25.0, 23.0, 9.0, 4.0, 3.0, 3.0, 19.0, 23.0, 13.0, 12.0, ]
Mon Jun 09 16:26:27 PDT 2014    6    0.26996843324081554    NaN    left - 6  right - 6  for- 6   [-4.117098134453118, 0.0, 2.2051702985197252, -0.31228363640927226, -4.117098134453118, 0.0, 2.2051702985197252, -0.31228363640927226, -4.117098134453118, 0.0, 2.2051702985197252, -0.31228363640927226, -4.117098134453118, 0.0, 2.2051702985197252, -0.31228363640927226, -4.117098134453118, 0.0, 2.2051702985197252, -0.31228363640927226, -0.02982035509335286, -0.02982035509335286, -0.02982035509335286, -0.02982035509335286, -0.02982035509335286, -0.5671946278418055, 0.7089051439422243, 0.7089051439422243, 0.7089051439422243, 0.7089051439422243, 0.7089051439422243, -2.3557160794372742, -1.0887609248913166, -1.0887609248913166, -1.0887609248913166, -1.0887609248913166, -1.0887609248913166, 0.994780344247137, 28.0, 10.0, 25.0, 23.0, 9.0, 4.0, 3.0, 3.0, 19.0, 23.0, 13.0, 12.0, ]
Mon Jun 09 16:26:47 PDT 2014    7    0.2664265998353753    NaN    left - 6  right - 6  for- 6   [-2.8098872466410025, 0.21233772281265276, 2.7522209231946473, -0.3407300667983564, -2.8098872466410025, 0.21233772281265276, 2.7522209231946473, -0.3407300667983564, -2.8098872466410025, 0.21233772281265276, 2.7522209231946473, -0.3407300667983564, -2.8098872466410025, 0.21233772281265276, 2.7522209231946473, -0.3407300667983564, -2.8098872466410025, 0.21233772281265276, 2.7522209231946473, -0.3407300667983564, 0.005659186920581581, 0.005659186920581581, 0.005659186920581581, 0.005659186920581581, 0.005659186920581581, -0.6239570451794518, 0.6723124923525532, 0.6723124923525532, 0.6723124923525532, 0.6723124923525532, 0.6723124923525532, -2.3476338213573267, -1.0646425503249144, -1.0646425503249144, -1.0646425503249144, -1.0646425503249144, -1.0646425503249144, 1.0459065663113076, 28.0, 6.0, 29.0, 23.0, 11.0, 20.0, 14.0, 2.0, 13.0, 23.0, 17.0, 14.0, ]
Mon Jun 09 16:27:03 PDT 2014    8    0.2664265998353753    NaN    left - 6  right - 6  for- 6   [-2.8098872466410025, 0.21233772281265276, 2.7522209231946473, -0.3407300667983564, -2.8098872466410025, 0.21233772281265276, 2.7522209231946473, -0.3407300667983564, -2.8098872466410025, 0.21233772281265276, 2.7522209231946473, -0.3407300667983564, -2.8098872466410025, 0.21233772281265276, 2.7522209231946473, -0.3407300667983564, -2.8098872466410025, 0.21233772281265276, 2.7522209231946473, -0.3407300667983564, 0.005659186920581581, 0.005659186920581581, 0.005659186920581581, 0.005659186920581581, 0.005659186920581581, -0.6239570451794518, 0.6723124923525532, 0.6723124923525532, 0.6723124923525532, 0.6723124923525532, 0.6723124923525532, -2.3476338213573267, -1.0646425503249144, -1.0646425503249144, -1.0646425503249144, -1.0646425503249144, -1.0646425503249144, 1.0459065663113076, 28.0, 6.0, 29.0, 23.0, 11.0, 20.0, 14.0, 2.0, 13.0, 23.0, 17.0, 14.0, ]
Mon Jun 09 16:27:22 PDT 2014    9    0.2664265998353753    NaN    left - 6  right - 6  for- 6   [-2.8098872466410025, 0.21233772281265276, 2.7522209231946473, -0.3407300667983564, -2.8098872466410025, 0.21233772281265276, 2.7522209231946473, -0.3407300667983564, -2.8098872466410025, 0.21233772281265276, 2.7522209231946473, -0.3407300667983564, -2.8098872466410025, 0.21233772281265276, 2.7522209231946473, -0.3407300667983564, -2.8098872466410025, 0.21233772281265276, 2.7522209231946473, -0.3407300667983564, 0.005659186920581581, 0.005659186920581581, 0.005659186920581581, 0.005659186920581581, 0.005659186920581581, -0.6239570451794518, 0.6723124923525532, 0.6723124923525532, 0.6723124923525532, 0.6723124923525532, 0.6723124923525532, -2.3476338213573267, -1.0646425503249144, -1.0646425503249144, -1.0646425503249144, -1.0646425503249144, -1.0646425503249144, 1.0459065663113076, 28.0, 6.0, 29.0, 23.0, 11.0, 20.0, 14.0, 2.0, 13.0, 23.0, 17.0, 14.0, ]
Mon Jun 09 16:27:40 PDT 2014    10    0.2664265998353753    NaN    left - 6  right - 6  for- 6   [-2.8098872466410025, 0.21233772281265276, 2.7522209231946473, -0.3407300667983564, -2.8098872466410025, 0.21233772281265276, 2.7522209231946473, -0.3407300667983564, -2.8098872466410025, 0.21233772281265276, 2.7522209231946473, -0.3407300667983564, -2.8098872466410025, 0.21233772281265276, 2.7522209231946473, -0.3407300667983564, -2.8098872466410025, 0.21233772281265276, 2.7522209231946473, -0.3407300667983564, 0.005659186920581581, 0.005659186920581581, 0.005659186920581581, 0.005659186920581581, 0.005659186920581581, -0.6239570451794518, 0.6723124923525532, 0.6723124923525532, 0.6723124923525532, 0.6723124923525532, 0.6723124923525532, -2.3476338213573267, -1.0646425503249144, -1.0646425503249144, -1.0646425503249144, -1.0646425503249144, -1.0646425503249144, 1.0459065663113076, 28.0, 6.0, 29.0, 23.0, 11.0, 20.0, 14.0, 2.0, 13.0, 23.0, 17.0, 14.0, ]
Mon Jun 09 16:27:58 PDT 2014    11    0.2664265998353753    NaN    left - 6  right - 6  for- 6   [-2.8098872466410025, 0.21233772281265276, 2.7522209231946473, -0.3407300667983564, -2.8098872466410025, 0.21233772281265276, 2.7522209231946473, -0.3407300667983564, -2.8098872466410025, 0.21233772281265276, 2.7522209231946473, -0.3407300667983564, -2.8098872466410025, 0.21233772281265276, 2.7522209231946473, -0.3407300667983564, -2.8098872466410025, 0.21233772281265276, 2.7522209231946473, -0.3407300667983564, 0.005659186920581581, 0.005659186920581581, 0.005659186920581581, 0.005659186920581581, 0.005659186920581581, -0.6239570451794518, 0.6723124923525532, 0.6723124923525532, 0.6723124923525532, 0.6723124923525532, 0.6723124923525532, -2.3476338213573267, -1.0646425503249144, -1.0646425503249144, -1.0646425503249144, -1.0646425503249144, -1.0646425503249144, 1.0459065663113076, 28.0, 6.0, 29.0, 23.0, 11.0, 20.0, 14.0, 2.0, 13.0, 23.0, 17.0, 14.0, ]
Mon Jun 09 16:28:15 PDT 2014    12    0.2664265998353753    NaN    left - 6  right - 6  for- 6   [-2.8098872466410025, 0.21233772281265276, 2.7522209231946473, -0.3407300667983564, -2.8098872466410025, 0.21233772281265276, 2.7522209231946473, -0.3407300667983564, -2.8098872466410025, 0.21233772281265276, 2.7522209231946473, -0.3407300667983564, -2.8098872466410025, 0.21233772281265276, 2.7522209231946473, -0.3407300667983564, -2.8098872466410025, 0.21233772281265276, 2.7522209231946473, -0.3407300667983564, 0.005659186920581581, 0.005659186920581581, 0.005659186920581581, 0.005659186920581581, 0.005659186920581581, -0.6239570451794518, 0.6723124923525532, 0.6723124923525532, 0.6723124923525532, 0.6723124923525532, 0.6723124923525532, -2.3476338213573267, -1.0646425503249144, -1.0646425503249144, -1.0646425503249144, -1.0646425503249144, -1.0646425503249144, 1.0459065663113076, 28.0, 6.0, 29.0, 23.0, 11.0, 20.0, 14.0, 2.0, 13.0, 23.0, 17.0, 14.0, ]
Mon Jun 09 16:28:34 PDT 2014    13    0.2664265998353753    NaN    left - 6  right - 6  for- 6   [-2.8098872466410025, 0.21233772281265276, 2.7522209231946473, -0.3407300667983564, -2.8098872466410025, 0.21233772281265276, 2.7522209231946473, -0.3407300667983564, -2.8098872466410025, 0.21233772281265276, 2.7522209231946473, -0.3407300667983564, -2.8098872466410025, 0.21233772281265276, 2.7522209231946473, -0.3407300667983564, -2.8098872466410025, 0.21233772281265276, 2.7522209231946473, -0.3407300667983564, 0.005659186920581581, 0.005659186920581581, 0.005659186920581581, 0.005659186920581581, 0.005659186920581581, -0.6239570451794518, 0.6723124923525532, 0.6723124923525532, 0.6723124923525532, 0.6723124923525532, 0.6723124923525532, -2.3476338213573267, -1.0646425503249144, -1.0646425503249144, -1.0646425503249144, -1.0646425503249144, -1.0646425503249144, 1.0459065663113076, 28.0, 6.0, 29.0, 23.0, 11.0, 20.0, 14.0, 2.0, 13.0, 23.0, 17.0, 14.0, ]
Mon Jun 09 16:28:54 PDT 2014    14    0.2664265998353753    NaN    left - 6  right - 6  for- 6   [-2.8098872466410025, 0.21233772281265276, 2.7522209231946473, -0.3407300667983564, -2.8098872466410025, 0.21233772281265276, 2.7522209231946473, -0.3407300667983564, -2.8098872466410025, 0.21233772281265276, 2.7522209231946473, -0.3407300667983564, -2.8098872466410025, 0.21233772281265276, 2.7522209231946473, -0.3407300667983564, -2.8098872466410025, 0.21233772281265276, 2.7522209231946473, -0.3407300667983564, 0.005659186920581581, 0.005659186920581581, 0.005659186920581581, 0.005659186920581581, 0.005659186920581581, -0.6239570451794518, 0.6723124923525532, 0.6723124923525532, 0.6723124923525532, 0.6723124923525532, 0.6723124923525532, -2.3476338213573267, -1.0646425503249144, -1.0646425503249144, -1.0646425503249144, -1.0646425503249144, -1.0646425503249144, 1.0459065663113076, 28.0, 6.0, 29.0, 23.0, 11.0, 20.0, 14.0, 2.0, 13.0, 23.0, 17.0, 14.0, ]
Mon Jun 09 16:29:14 PDT 2014    15    0.2664265998353753    NaN    left - 6  right - 6  for- 6   [-2.8098872466410025, 0.21233772281265276, 2.7522209231946473, -0.3407300667983564, -2.8098872466410025, 0.21233772281265276, 2.7522209231946473, -0.3407300667983564, -2.8098872466410025, 0.21233772281265276, 2.7522209231946473, -0.3407300667983564, -2.8098872466410025, 0.21233772281265276, 2.7522209231946473, -0.3407300667983564, -2.8098872466410025, 0.21233772281265276, 2.7522209231946473, -0.3407300667983564, 0.005659186920581581, 0.005659186920581581, 0.005659186920581581, 0.005659186920581581, 0.005659186920581581, -0.6239570451794518, 0.6723124923525532, 0.6723124923525532, 0.6723124923525532, 0.6723124923525532, 0.6723124923525532, -2.3476338213573267, -1.0646425503249144, -1.0646425503249144, -1.0646425503249144, -1.0646425503249144, -1.0646425503249144, 1.0459065663113076, 28.0, 6.0, 29.0, 23.0, 11.0, 20.0, 14.0, 2.0, 13.0, 23.0, 17.0, 14.0, ]
Mon Jun 09 16:29:30 PDT 2014    16    0.2664265998353753    NaN    left - 6  right - 6  for- 6   [-2.8098872466410025, 0.21233772281265276, 2.7522209231946473, -0.3407300667983564, -2.8098872466410025, 0.21233772281265276, 2.7522209231946473, -0.3407300667983564, -2.8098872466410025, 0.21233772281265276, 2.7522209231946473, -0.3407300667983564, -2.8098872466410025, 0.21233772281265276, 2.7522209231946473, -0.3407300667983564, -2.8098872466410025, 0.21233772281265276, 2.7522209231946473, -0.3407300667983564, 0.005659186920581581, 0.005659186920581581, 0.005659186920581581, 0.005659186920581581, 0.005659186920581581, -0.6239570451794518, 0.6723124923525532, 0.6723124923525532, 0.6723124923525532, 0.6723124923525532, 0.6723124923525532, -2.3476338213573267, -1.0646425503249144, -1.0646425503249144, -1.0646425503249144, -1.0646425503249144, -1.0646425503249144, 1.0459065663113076, 28.0, 6.0, 29.0, 23.0, 11.0, 20.0, 14.0, 2.0, 13.0, 23.0, 17.0, 14.0, ]
Mon Jun 09 16:29:49 PDT 2014    17    0.2664265998353753    NaN    left - 6  right - 6  for- 6   [-2.8098872466410025, 0.21233772281265276, 2.7522209231946473, -0.3407300667983564, -2.8098872466410025, 0.21233772281265276, 2.7522209231946473, -0.3407300667983564, -2.8098872466410025, 0.21233772281265276, 2.7522209231946473, -0.3407300667983564, -2.8098872466410025, 0.21233772281265276, 2.7522209231946473, -0.3407300667983564, -2.8098872466410025, 0.21233772281265276, 2.7522209231946473, -0.3407300667983564, 0.005659186920581581, 0.005659186920581581, 0.005659186920581581, 0.005659186920581581, 0.005659186920581581, -0.6239570451794518, 0.6723124923525532, 0.6723124923525532, 0.6723124923525532, 0.6723124923525532, 0.6723124923525532, -2.3476338213573267, -1.0646425503249144, -1.0646425503249144, -1.0646425503249144, -1.0646425503249144, -1.0646425503249144, 1.0459065663113076, 28.0, 6.0, 29.0, 23.0, 11.0, 20.0, 14.0, 2.0, 13.0, 23.0, 17.0, 14.0, ]
Mon Jun 09 16:30:12 PDT 2014    18    0.2664265998353753    NaN    left - 6  right - 6  for- 6   [-2.8098872466410025, 0.21233772281265276, 2.7522209231946473, -0.3407300667983564, -2.8098872466410025, 0.21233772281265276, 2.7522209231946473, -0.3407300667983564, -2.8098872466410025, 0.21233772281265276, 2.7522209231946473, -0.3407300667983564, -2.8098872466410025, 0.21233772281265276, 2.7522209231946473, -0.3407300667983564, -2.8098872466410025, 0.21233772281265276, 2.7522209231946473, -0.3407300667983564, 0.005659186920581581, 0.005659186920581581, 0.005659186920581581, 0.005659186920581581, 0.005659186920581581, -0.6239570451794518, 0.6723124923525532, 0.6723124923525532, 0.6723124923525532, 0.6723124923525532, 0.6723124923525532, -2.3476338213573267, -1.0646425503249144, -1.0646425503249144, -1.0646425503249144, -1.0646425503249144, -1.0646425503249144, 1.0459065663113076, 28.0, 6.0, 29.0, 23.0, 11.0, 20.0, 14.0, 2.0, 13.0, 23.0, 17.0, 14.0, ]
Mon Jun 09 16:30:28 PDT 2014    19    0.2664265998353753    NaN    left - 6  right - 6  for- 6   [-2.8098872466410025, 0.21233772281265276, 2.7522209231946473, -0.3407300667983564, -2.8098872466410025, 0.21233772281265276, 2.7522209231946473, -0.3407300667983564, -2.8098872466410025, 0.21233772281265276, 2.7522209231946473, -0.3407300667983564, -2.8098872466410025, 0.21233772281265276, 2.7522209231946473, -0.3407300667983564, -2.8098872466410025, 0.21233772281265276, 2.7522209231946473, -0.3407300667983564, 0.005659186920581581, 0.005659186920581581, 0.005659186920581581, 0.005659186920581581, 0.005659186920581581, -0.6239570451794518, 0.6723124923525532, 0.6723124923525532, 0.6723124923525532, 0.6723124923525532, 0.6723124923525532, -2.3476338213573267, -1.0646425503249144, -1.0646425503249144, -1.0646425503249144, -1.0646425503249144, -1.0646425503249144, 1.0459065663113076, 28.0, 6.0, 29.0, 23.0, 11.0, 20.0, 14.0, 2.0, 13.0, 23.0, 17.0, 14.0, ]
